﻿<?xml version="1.0" encoding="utf-8"?>
<?AutomationStudio Version="3.0"?>
<PanelMap xmlns="http://br-automation.co.at/AS/VC/Project">
  <Property Name="Description" Value="Keymapping for 4PPC30" />
  <Property Name="HwFile" Value="4PPC30.0702-21B.hwx" />
  <Property Name="Name" Value="4PPC30_0702_21B" />
  <Property Name="NumLevel" Value="4" />
  <Property Name="Type" Value="4PPC30.0702-21B" />
  <PanelItems>
    <PanelItem Index="1">
      <KeyLevels />
    </PanelItem>
    <PanelItem Index="100">
      <KeyLevels />
    </PanelItem>
  </PanelItems>
</PanelMap>